<mxfile host="app.diagrams.net" modified="2024-02-21T16:16:34.425Z" agent="Mozilla/5.0 (Windows NT 10.0; Win64; x64) AppleWebKit/537.36 (KHTML, like Gecko) Chrome/121.0.0.0 Safari/537.36 Edg/121.0.0.0" etag="nrOFIstZY9pGeOrmhPvY" version="23.1.5" type="gitlab">
  <diagram name="Trang-1" id="93wgs6-HtTaH1fyEdkDD">
    <mxGraphModel dx="4565" dy="2239" grid="1" gridSize="10" guides="1" tooltips="1" connect="1" arrows="1" fold="1" page="1" pageScale="1" pageWidth="827" pageHeight="1169" math="0" shadow="0">
      <root>
        <mxCell id="0" />
        <mxCell id="1" parent="0" />
        <mxCell id="YmUADEOCenYqpQ8GPm7N-16" value="" style="shape=table;startSize=0;container=1;collapsible=0;childLayout=tableLayout;" parent="1" vertex="1">
          <mxGeometry x="-1700" y="-1080" width="1110" height="803" as="geometry" />
        </mxCell>
        <mxCell id="YmUADEOCenYqpQ8GPm7N-17" value="" style="shape=tableRow;horizontal=0;startSize=0;swimlaneHead=0;swimlaneBody=0;strokeColor=inherit;top=0;left=0;bottom=0;right=0;collapsible=0;dropTarget=0;fillColor=none;points=[[0,0.5],[1,0.5]];portConstraint=eastwest;" parent="YmUADEOCenYqpQ8GPm7N-16" vertex="1">
          <mxGeometry width="1110" height="105" as="geometry" />
        </mxCell>
        <mxCell id="YmUADEOCenYqpQ8GPm7N-18" value="&lt;font style=&quot;font-size: 24px;&quot;&gt;Tên usecase&lt;/font&gt;" style="shape=partialRectangle;html=1;whiteSpace=wrap;connectable=0;strokeColor=inherit;overflow=hidden;fillColor=none;top=0;left=0;bottom=0;right=0;pointerEvents=1;" parent="YmUADEOCenYqpQ8GPm7N-17" vertex="1">
          <mxGeometry width="320" height="105" as="geometry">
            <mxRectangle width="320" height="105" as="alternateBounds" />
          </mxGeometry>
        </mxCell>
        <mxCell id="YmUADEOCenYqpQ8GPm7N-19" value="&lt;font style=&quot;font-size: 24px;&quot;&gt;Danh sách những ứng viên đã được nhận&lt;/font&gt;" style="shape=partialRectangle;html=1;whiteSpace=wrap;connectable=0;strokeColor=inherit;overflow=hidden;fillColor=none;top=0;left=0;bottom=0;right=0;pointerEvents=1;" parent="YmUADEOCenYqpQ8GPm7N-17" vertex="1">
          <mxGeometry x="320" width="790" height="105" as="geometry">
            <mxRectangle width="790" height="105" as="alternateBounds" />
          </mxGeometry>
        </mxCell>
        <mxCell id="YmUADEOCenYqpQ8GPm7N-20" value="" style="shape=tableRow;horizontal=0;startSize=0;swimlaneHead=0;swimlaneBody=0;strokeColor=inherit;top=0;left=0;bottom=0;right=0;collapsible=0;dropTarget=0;fillColor=none;points=[[0,0.5],[1,0.5]];portConstraint=eastwest;" parent="YmUADEOCenYqpQ8GPm7N-16" vertex="1">
          <mxGeometry y="105" width="1110" height="108" as="geometry" />
        </mxCell>
        <mxCell id="YmUADEOCenYqpQ8GPm7N-21" value="&lt;font style=&quot;font-size: 24px;&quot;&gt;Mô tả&amp;nbsp;&lt;/font&gt;" style="shape=partialRectangle;html=1;whiteSpace=wrap;connectable=0;strokeColor=inherit;overflow=hidden;fillColor=none;top=0;left=0;bottom=0;right=0;pointerEvents=1;" parent="YmUADEOCenYqpQ8GPm7N-20" vertex="1">
          <mxGeometry width="320" height="108" as="geometry">
            <mxRectangle width="320" height="108" as="alternateBounds" />
          </mxGeometry>
        </mxCell>
        <mxCell id="YmUADEOCenYqpQ8GPm7N-22" value="&lt;font style=&quot;font-size: 24px;&quot;&gt;Cho phép nhà tuyển dụng xem những nhân viên đã tuyển&amp;nbsp;&lt;/font&gt;" style="shape=partialRectangle;html=1;whiteSpace=wrap;connectable=0;strokeColor=inherit;overflow=hidden;fillColor=none;top=0;left=0;bottom=0;right=0;pointerEvents=1;" parent="YmUADEOCenYqpQ8GPm7N-20" vertex="1">
          <mxGeometry x="320" width="790" height="108" as="geometry">
            <mxRectangle width="790" height="108" as="alternateBounds" />
          </mxGeometry>
        </mxCell>
        <mxCell id="YmUADEOCenYqpQ8GPm7N-23" value="" style="shape=tableRow;horizontal=0;startSize=0;swimlaneHead=0;swimlaneBody=0;strokeColor=inherit;top=0;left=0;bottom=0;right=0;collapsible=0;dropTarget=0;fillColor=none;points=[[0,0.5],[1,0.5]];portConstraint=eastwest;" parent="YmUADEOCenYqpQ8GPm7N-16" vertex="1">
          <mxGeometry y="213" width="1110" height="107" as="geometry" />
        </mxCell>
        <mxCell id="YmUADEOCenYqpQ8GPm7N-24" value="&lt;font style=&quot;font-size: 24px;&quot;&gt;Tác nhân&lt;/font&gt;" style="shape=partialRectangle;html=1;whiteSpace=wrap;connectable=0;strokeColor=inherit;overflow=hidden;fillColor=none;top=0;left=0;bottom=0;right=0;pointerEvents=1;" parent="YmUADEOCenYqpQ8GPm7N-23" vertex="1">
          <mxGeometry width="320" height="107" as="geometry">
            <mxRectangle width="320" height="107" as="alternateBounds" />
          </mxGeometry>
        </mxCell>
        <mxCell id="YmUADEOCenYqpQ8GPm7N-25" value="&lt;font style=&quot;font-size: 24px;&quot;&gt;Nhà tuyển dụng&lt;/font&gt;" style="shape=partialRectangle;html=1;whiteSpace=wrap;connectable=0;strokeColor=inherit;overflow=hidden;fillColor=none;top=0;left=0;bottom=0;right=0;pointerEvents=1;" parent="YmUADEOCenYqpQ8GPm7N-23" vertex="1">
          <mxGeometry x="320" width="790" height="107" as="geometry">
            <mxRectangle width="790" height="107" as="alternateBounds" />
          </mxGeometry>
        </mxCell>
        <mxCell id="YmUADEOCenYqpQ8GPm7N-35" value="" style="shape=tableRow;horizontal=0;startSize=0;swimlaneHead=0;swimlaneBody=0;strokeColor=inherit;top=0;left=0;bottom=0;right=0;collapsible=0;dropTarget=0;fillColor=none;points=[[0,0.5],[1,0.5]];portConstraint=eastwest;" parent="YmUADEOCenYqpQ8GPm7N-16" vertex="1">
          <mxGeometry y="320" width="1110" height="105" as="geometry" />
        </mxCell>
        <mxCell id="YmUADEOCenYqpQ8GPm7N-36" value="&lt;font style=&quot;font-size: 24px;&quot;&gt;Điều kiện đầu vào&lt;/font&gt;" style="shape=partialRectangle;html=1;whiteSpace=wrap;connectable=0;strokeColor=inherit;overflow=hidden;fillColor=none;top=0;left=0;bottom=0;right=0;pointerEvents=1;" parent="YmUADEOCenYqpQ8GPm7N-35" vertex="1">
          <mxGeometry width="320" height="105" as="geometry">
            <mxRectangle width="320" height="105" as="alternateBounds" />
          </mxGeometry>
        </mxCell>
        <mxCell id="YmUADEOCenYqpQ8GPm7N-37" value="&lt;font style=&quot;font-size: 24px;&quot;&gt;Khi nhà tuyển dụng xem trang nhân viên&amp;nbsp;&lt;/font&gt;" style="shape=partialRectangle;html=1;whiteSpace=wrap;connectable=0;strokeColor=inherit;overflow=hidden;fillColor=none;top=0;left=0;bottom=0;right=0;pointerEvents=1;" parent="YmUADEOCenYqpQ8GPm7N-35" vertex="1">
          <mxGeometry x="320" width="790" height="105" as="geometry">
            <mxRectangle width="790" height="105" as="alternateBounds" />
          </mxGeometry>
        </mxCell>
        <mxCell id="YmUADEOCenYqpQ8GPm7N-29" value="" style="shape=tableRow;horizontal=0;startSize=0;swimlaneHead=0;swimlaneBody=0;strokeColor=inherit;top=0;left=0;bottom=0;right=0;collapsible=0;dropTarget=0;fillColor=none;points=[[0,0.5],[1,0.5]];portConstraint=eastwest;" parent="YmUADEOCenYqpQ8GPm7N-16" vertex="1">
          <mxGeometry y="425" width="1110" height="106" as="geometry" />
        </mxCell>
        <mxCell id="YmUADEOCenYqpQ8GPm7N-30" value="&lt;font style=&quot;font-size: 24px;&quot;&gt;Điều kiện đầu ra&lt;/font&gt;" style="shape=partialRectangle;html=1;whiteSpace=wrap;connectable=0;strokeColor=inherit;overflow=hidden;fillColor=none;top=0;left=0;bottom=0;right=0;pointerEvents=1;" parent="YmUADEOCenYqpQ8GPm7N-29" vertex="1">
          <mxGeometry width="320" height="106" as="geometry">
            <mxRectangle width="320" height="106" as="alternateBounds" />
          </mxGeometry>
        </mxCell>
        <mxCell id="YmUADEOCenYqpQ8GPm7N-31" value="&lt;span style=&quot;font-size: 24px;&quot;&gt;Hiển thị danh sách nhân viên&lt;/span&gt;" style="shape=partialRectangle;html=1;whiteSpace=wrap;connectable=0;strokeColor=inherit;overflow=hidden;fillColor=none;top=0;left=0;bottom=0;right=0;pointerEvents=1;" parent="YmUADEOCenYqpQ8GPm7N-29" vertex="1">
          <mxGeometry x="320" width="790" height="106" as="geometry">
            <mxRectangle width="790" height="106" as="alternateBounds" />
          </mxGeometry>
        </mxCell>
        <mxCell id="YmUADEOCenYqpQ8GPm7N-32" style="shape=tableRow;horizontal=0;startSize=0;swimlaneHead=0;swimlaneBody=0;strokeColor=inherit;top=0;left=0;bottom=0;right=0;collapsible=0;dropTarget=0;fillColor=none;points=[[0,0.5],[1,0.5]];portConstraint=eastwest;" parent="YmUADEOCenYqpQ8GPm7N-16" vertex="1">
          <mxGeometry y="531" width="1110" height="272" as="geometry" />
        </mxCell>
        <mxCell id="YmUADEOCenYqpQ8GPm7N-33" value="&lt;font style=&quot;font-size: 24px;&quot;&gt;Dòng sự kiện chính&lt;/font&gt;" style="shape=partialRectangle;html=1;whiteSpace=wrap;connectable=0;strokeColor=inherit;overflow=hidden;fillColor=none;top=0;left=0;bottom=0;right=0;pointerEvents=1;" parent="YmUADEOCenYqpQ8GPm7N-32" vertex="1">
          <mxGeometry width="320" height="272" as="geometry">
            <mxRectangle width="320" height="272" as="alternateBounds" />
          </mxGeometry>
        </mxCell>
        <mxCell id="YmUADEOCenYqpQ8GPm7N-34" value="&lt;font style=&quot;font-size: 24px;&quot;&gt;+ Nhà tuyển dụng truy cập website chọn mục nhân viên&lt;br&gt;&amp;nbsp;&lt;br&gt;+ Nhà tuyển dụng tải resume của nhân viên&lt;br&gt;&lt;br&gt;+ Nhà tuyển dụng kết thúc việc làm của nhân viên&lt;br&gt;&lt;br&gt;+ Nhà tuyển dụng đánh giá năng lực của nhân viên&lt;/font&gt;" style="shape=partialRectangle;html=1;whiteSpace=wrap;connectable=0;strokeColor=inherit;overflow=hidden;fillColor=none;top=0;left=0;bottom=0;right=0;pointerEvents=1;align=left;" parent="YmUADEOCenYqpQ8GPm7N-32" vertex="1">
          <mxGeometry x="320" width="790" height="272" as="geometry">
            <mxRectangle width="790" height="272" as="alternateBounds" />
          </mxGeometry>
        </mxCell>
        <mxCell id="YmUADEOCenYqpQ8GPm7N-38" value="" style="shape=table;startSize=0;container=1;collapsible=0;childLayout=tableLayout;rounded=1;swimlaneLine=1;shadow=1;arcSize=25;fontSize=24;" parent="1" vertex="1">
          <mxGeometry x="-390" y="-1140" width="1460" height="840" as="geometry" />
        </mxCell>
        <mxCell id="YmUADEOCenYqpQ8GPm7N-39" value="" style="shape=tableRow;horizontal=0;startSize=0;swimlaneHead=0;swimlaneBody=0;strokeColor=inherit;top=0;left=0;bottom=0;right=0;collapsible=0;dropTarget=0;fillColor=none;points=[[0,0.5],[1,0.5]];portConstraint=eastwest;" parent="YmUADEOCenYqpQ8GPm7N-38" vertex="1">
          <mxGeometry width="1460" height="140" as="geometry" />
        </mxCell>
        <mxCell id="YmUADEOCenYqpQ8GPm7N-40" value="&lt;font style=&quot;font-size: 36px;&quot;&gt;Nhà tuyển dụng&lt;/font&gt;" style="shape=partialRectangle;html=1;whiteSpace=wrap;connectable=0;strokeColor=inherit;overflow=hidden;fillColor=none;top=0;left=0;bottom=0;right=0;pointerEvents=1;fontSize=24;" parent="YmUADEOCenYqpQ8GPm7N-39" vertex="1">
          <mxGeometry width="710" height="140" as="geometry">
            <mxRectangle width="710" height="140" as="alternateBounds" />
          </mxGeometry>
        </mxCell>
        <mxCell id="YmUADEOCenYqpQ8GPm7N-41" value="&lt;font style=&quot;font-size: 36px;&quot;&gt;Hệ thống&amp;nbsp;&lt;/font&gt;" style="shape=partialRectangle;html=1;whiteSpace=wrap;connectable=0;strokeColor=inherit;overflow=hidden;fillColor=none;top=0;left=0;bottom=0;right=0;pointerEvents=1;fontSize=24;" parent="YmUADEOCenYqpQ8GPm7N-39" vertex="1">
          <mxGeometry x="710" width="750" height="140" as="geometry">
            <mxRectangle width="750" height="140" as="alternateBounds" />
          </mxGeometry>
        </mxCell>
        <mxCell id="YmUADEOCenYqpQ8GPm7N-42" value="" style="shape=tableRow;horizontal=0;startSize=0;swimlaneHead=0;swimlaneBody=0;strokeColor=inherit;top=0;left=0;bottom=0;right=0;collapsible=0;dropTarget=0;fillColor=none;points=[[0,0.5],[1,0.5]];portConstraint=eastwest;" parent="YmUADEOCenYqpQ8GPm7N-38" vertex="1">
          <mxGeometry y="140" width="1460" height="700" as="geometry" />
        </mxCell>
        <mxCell id="YmUADEOCenYqpQ8GPm7N-43" value="" style="shape=partialRectangle;html=1;whiteSpace=wrap;connectable=0;strokeColor=inherit;overflow=hidden;fillColor=none;top=0;left=0;bottom=0;right=0;pointerEvents=1;fontSize=24;" parent="YmUADEOCenYqpQ8GPm7N-42" vertex="1">
          <mxGeometry width="710" height="700" as="geometry">
            <mxRectangle width="710" height="700" as="alternateBounds" />
          </mxGeometry>
        </mxCell>
        <mxCell id="YmUADEOCenYqpQ8GPm7N-44" value="" style="shape=partialRectangle;html=1;whiteSpace=wrap;connectable=0;strokeColor=inherit;overflow=hidden;fillColor=none;top=0;left=0;bottom=0;right=0;pointerEvents=1;fontSize=24;" parent="YmUADEOCenYqpQ8GPm7N-42" vertex="1">
          <mxGeometry x="710" width="750" height="700" as="geometry">
            <mxRectangle width="750" height="700" as="alternateBounds" />
          </mxGeometry>
        </mxCell>
        <mxCell id="YmUADEOCenYqpQ8GPm7N-56" value="" style="ellipse;html=1;shape=startState;fillColor=#000000;strokeColor=#ff0000;fontSize=12;" parent="1" vertex="1">
          <mxGeometry x="-120" y="-990" width="60" height="60" as="geometry" />
        </mxCell>
        <mxCell id="YmUADEOCenYqpQ8GPm7N-57" value="" style="edgeStyle=orthogonalEdgeStyle;html=1;verticalAlign=bottom;endArrow=open;endSize=8;strokeColor=#ff0000;rounded=0;entryX=0.5;entryY=0;entryDx=0;entryDy=0;" parent="1" source="YmUADEOCenYqpQ8GPm7N-56" edge="1">
          <mxGeometry relative="1" as="geometry">
            <mxPoint x="-90" y="-890" as="targetPoint" />
            <Array as="points">
              <mxPoint x="-90" y="-900" />
              <mxPoint x="-90" y="-900" />
            </Array>
          </mxGeometry>
        </mxCell>
        <mxCell id="YmUADEOCenYqpQ8GPm7N-71" value="Truy cập trang nhân viên" style="rounded=1;whiteSpace=wrap;html=1;swimlaneLine=1;shadow=1;arcSize=25;fontSize=24;" parent="1" vertex="1">
          <mxGeometry x="-190" y="-890" width="200" height="100" as="geometry" />
        </mxCell>
        <mxCell id="YmUADEOCenYqpQ8GPm7N-72" value="Hiển thị danh sách nhân viên" style="rounded=1;whiteSpace=wrap;html=1;swimlaneLine=1;shadow=1;arcSize=25;fontSize=24;" parent="1" vertex="1">
          <mxGeometry x="570" y="-890" width="200" height="100" as="geometry" />
        </mxCell>
        <mxCell id="YmUADEOCenYqpQ8GPm7N-73" value="tải resume" style="rounded=1;whiteSpace=wrap;html=1;swimlaneLine=1;shadow=1;arcSize=25;fontSize=24;" parent="1" vertex="1">
          <mxGeometry x="-370" y="-660" width="200" height="100" as="geometry" />
        </mxCell>
        <mxCell id="YmUADEOCenYqpQ8GPm7N-74" value="Kết thúc việc làm" style="rounded=1;whiteSpace=wrap;html=1;swimlaneLine=1;shadow=1;arcSize=25;fontSize=24;" parent="1" vertex="1">
          <mxGeometry x="-150" y="-660" width="200" height="100" as="geometry" />
        </mxCell>
        <mxCell id="YmUADEOCenYqpQ8GPm7N-75" value="Đánh giá nhân viên" style="rounded=1;whiteSpace=wrap;html=1;swimlaneLine=1;shadow=1;arcSize=25;fontSize=24;" parent="1" vertex="1">
          <mxGeometry x="90" y="-660" width="200" height="100" as="geometry" />
        </mxCell>
        <mxCell id="YmUADEOCenYqpQ8GPm7N-93" value="" style="endArrow=open;endFill=1;endSize=12;html=1;rounded=0;exitX=1;exitY=0.5;exitDx=0;exitDy=0;entryX=0;entryY=0.5;entryDx=0;entryDy=0;" parent="1" source="YmUADEOCenYqpQ8GPm7N-71" target="YmUADEOCenYqpQ8GPm7N-72" edge="1">
          <mxGeometry width="160" relative="1" as="geometry">
            <mxPoint x="219.9999999999991" y="90" as="sourcePoint" />
            <mxPoint x="539.9999999999991" y="90" as="targetPoint" />
          </mxGeometry>
        </mxCell>
        <mxCell id="YmUADEOCenYqpQ8GPm7N-96" value="" style="endArrow=open;endFill=1;endSize=12;html=1;rounded=0;entryX=0.5;entryY=0;entryDx=0;entryDy=0;exitX=0.5;exitY=1;exitDx=0;exitDy=0;" parent="1" source="YmUADEOCenYqpQ8GPm7N-71" target="YmUADEOCenYqpQ8GPm7N-75" edge="1">
          <mxGeometry width="160" relative="1" as="geometry">
            <mxPoint x="-70" y="180" as="sourcePoint" />
            <mxPoint x="90" y="180" as="targetPoint" />
          </mxGeometry>
        </mxCell>
        <mxCell id="YmUADEOCenYqpQ8GPm7N-97" value="" style="endArrow=open;endFill=1;endSize=12;html=1;rounded=0;entryX=0.5;entryY=0;entryDx=0;entryDy=0;exitX=0.5;exitY=1;exitDx=0;exitDy=0;" parent="1" target="YmUADEOCenYqpQ8GPm7N-74" edge="1" source="YmUADEOCenYqpQ8GPm7N-71">
          <mxGeometry width="160" relative="1" as="geometry">
            <mxPoint x="-40" y="210" as="sourcePoint" />
            <mxPoint x="90" y="180" as="targetPoint" />
          </mxGeometry>
        </mxCell>
        <mxCell id="YmUADEOCenYqpQ8GPm7N-98" value="" style="endArrow=open;endFill=1;endSize=12;html=1;rounded=0;exitX=0.5;exitY=1;exitDx=0;exitDy=0;entryX=0.5;entryY=0;entryDx=0;entryDy=0;" parent="1" source="YmUADEOCenYqpQ8GPm7N-71" target="YmUADEOCenYqpQ8GPm7N-73" edge="1">
          <mxGeometry width="160" relative="1" as="geometry">
            <mxPoint x="-70" y="180" as="sourcePoint" />
            <mxPoint x="90" y="180" as="targetPoint" />
          </mxGeometry>
        </mxCell>
        <mxCell id="YmUADEOCenYqpQ8GPm7N-101" value="" style="ellipse;html=1;shape=endState;fillColor=#000000;strokeColor=#ff0000;" parent="1" vertex="1">
          <mxGeometry x="620" y="-650" width="100" height="100" as="geometry" />
        </mxCell>
        <mxCell id="YmUADEOCenYqpQ8GPm7N-102" value="" style="endArrow=open;endFill=1;endSize=12;html=1;rounded=0;exitX=0.5;exitY=1;exitDx=0;exitDy=0;entryX=0.5;entryY=0;entryDx=0;entryDy=0;" parent="1" source="YmUADEOCenYqpQ8GPm7N-72" target="YmUADEOCenYqpQ8GPm7N-101" edge="1">
          <mxGeometry width="160" relative="1" as="geometry">
            <mxPoint x="240" y="30" as="sourcePoint" />
            <mxPoint x="400" y="30" as="targetPoint" />
          </mxGeometry>
        </mxCell>
        <mxCell id="YmUADEOCenYqpQ8GPm7N-125" value="" style="shape=table;startSize=0;container=1;collapsible=0;childLayout=tableLayout;rounded=1;swimlaneLine=1;shadow=1;arcSize=25;fontSize=24;" parent="1" vertex="1">
          <mxGeometry x="-400" y="690" width="1450" height="790" as="geometry" />
        </mxCell>
        <mxCell id="YmUADEOCenYqpQ8GPm7N-126" value="" style="shape=tableRow;horizontal=0;startSize=0;swimlaneHead=0;swimlaneBody=0;strokeColor=inherit;top=0;left=0;bottom=0;right=0;collapsible=0;dropTarget=0;fillColor=none;points=[[0,0.5],[1,0.5]];portConstraint=eastwest;" parent="YmUADEOCenYqpQ8GPm7N-125" vertex="1">
          <mxGeometry width="1450" height="139" as="geometry" />
        </mxCell>
        <mxCell id="YmUADEOCenYqpQ8GPm7N-127" value="&lt;font style=&quot;font-size: 36px;&quot;&gt;Người dùng&lt;/font&gt;" style="shape=partialRectangle;html=1;whiteSpace=wrap;connectable=0;strokeColor=inherit;overflow=hidden;fillColor=none;top=0;left=0;bottom=0;right=0;pointerEvents=1;fontSize=24;" parent="YmUADEOCenYqpQ8GPm7N-126" vertex="1">
          <mxGeometry width="705" height="139" as="geometry">
            <mxRectangle width="705" height="139" as="alternateBounds" />
          </mxGeometry>
        </mxCell>
        <mxCell id="YmUADEOCenYqpQ8GPm7N-128" value="&lt;font style=&quot;font-size: 36px;&quot;&gt;Hệ thống&amp;nbsp;&lt;/font&gt;" style="shape=partialRectangle;html=1;whiteSpace=wrap;connectable=0;strokeColor=inherit;overflow=hidden;fillColor=none;top=0;left=0;bottom=0;right=0;pointerEvents=1;fontSize=24;" parent="YmUADEOCenYqpQ8GPm7N-126" vertex="1">
          <mxGeometry x="705" width="745" height="139" as="geometry">
            <mxRectangle width="745" height="139" as="alternateBounds" />
          </mxGeometry>
        </mxCell>
        <mxCell id="YmUADEOCenYqpQ8GPm7N-129" value="" style="shape=tableRow;horizontal=0;startSize=0;swimlaneHead=0;swimlaneBody=0;strokeColor=inherit;top=0;left=0;bottom=0;right=0;collapsible=0;dropTarget=0;fillColor=none;points=[[0,0.5],[1,0.5]];portConstraint=eastwest;" parent="YmUADEOCenYqpQ8GPm7N-125" vertex="1">
          <mxGeometry y="139" width="1450" height="651" as="geometry" />
        </mxCell>
        <mxCell id="YmUADEOCenYqpQ8GPm7N-130" value="" style="shape=partialRectangle;html=1;whiteSpace=wrap;connectable=0;strokeColor=inherit;overflow=hidden;fillColor=none;top=0;left=0;bottom=0;right=0;pointerEvents=1;fontSize=24;" parent="YmUADEOCenYqpQ8GPm7N-129" vertex="1">
          <mxGeometry width="705" height="651" as="geometry">
            <mxRectangle width="705" height="651" as="alternateBounds" />
          </mxGeometry>
        </mxCell>
        <mxCell id="YmUADEOCenYqpQ8GPm7N-131" value="" style="shape=partialRectangle;html=1;whiteSpace=wrap;connectable=0;strokeColor=inherit;overflow=hidden;fillColor=none;top=0;left=0;bottom=0;right=0;pointerEvents=1;fontSize=24;" parent="YmUADEOCenYqpQ8GPm7N-129" vertex="1">
          <mxGeometry x="705" width="745" height="651" as="geometry">
            <mxRectangle width="745" height="651" as="alternateBounds" />
          </mxGeometry>
        </mxCell>
        <mxCell id="YmUADEOCenYqpQ8GPm7N-141" value="" style="ellipse;html=1;shape=startState;fillColor=#000000;strokeColor=#ff0000;" parent="1" vertex="1">
          <mxGeometry x="-60" y="840" width="60" height="60" as="geometry" />
        </mxCell>
        <mxCell id="YmUADEOCenYqpQ8GPm7N-142" value="" style="edgeStyle=orthogonalEdgeStyle;html=1;verticalAlign=bottom;endArrow=open;endSize=8;strokeColor=#ff0000;rounded=0;entryX=0.5;entryY=0;entryDx=0;entryDy=0;" parent="1" source="YmUADEOCenYqpQ8GPm7N-141" target="YmUADEOCenYqpQ8GPm7N-149" edge="1">
          <mxGeometry relative="1" as="geometry">
            <mxPoint x="-30" y="970" as="targetPoint" />
          </mxGeometry>
        </mxCell>
        <mxCell id="YmUADEOCenYqpQ8GPm7N-149" value="Truy cập trang đơn ứng tuyển&amp;nbsp;" style="rounded=1;whiteSpace=wrap;html=1;fontSize=24;" parent="1" vertex="1">
          <mxGeometry x="-130" y="960" width="200" height="100" as="geometry" />
        </mxCell>
        <mxCell id="YmUADEOCenYqpQ8GPm7N-150" value="Hiển thị các đơn xin việc đã nộp" style="rounded=1;whiteSpace=wrap;html=1;fontSize=24;" parent="1" vertex="1">
          <mxGeometry x="600" y="960" width="200" height="100" as="geometry" />
        </mxCell>
        <mxCell id="YmUADEOCenYqpQ8GPm7N-151" value="Đơn được chấp nhận&amp;nbsp;" style="rounded=1;whiteSpace=wrap;html=1;fontSize=24;" parent="1" vertex="1">
          <mxGeometry x="-250" y="1120" width="200" height="100" as="geometry" />
        </mxCell>
        <mxCell id="YmUADEOCenYqpQ8GPm7N-152" value="Đơn bị từ chối" style="rounded=1;whiteSpace=wrap;html=1;fontSize=24;" parent="1" vertex="1">
          <mxGeometry x="40" y="1130" width="200" height="100" as="geometry" />
        </mxCell>
        <mxCell id="YmUADEOCenYqpQ8GPm7N-153" value="Đánh giá công việc" style="rounded=1;whiteSpace=wrap;html=1;fontSize=24;" parent="1" vertex="1">
          <mxGeometry x="-250" y="1340" width="200" height="100" as="geometry" />
        </mxCell>
        <mxCell id="YmUADEOCenYqpQ8GPm7N-154" value="" style="endArrow=classic;html=1;rounded=0;exitX=0.5;exitY=1;exitDx=0;exitDy=0;entryX=0.5;entryY=0;entryDx=0;entryDy=0;" parent="1" source="YmUADEOCenYqpQ8GPm7N-151" target="YmUADEOCenYqpQ8GPm7N-153" edge="1">
          <mxGeometry width="50" height="50" relative="1" as="geometry">
            <mxPoint x="180" y="1500" as="sourcePoint" />
            <mxPoint x="230" y="1450" as="targetPoint" />
          </mxGeometry>
        </mxCell>
        <mxCell id="YmUADEOCenYqpQ8GPm7N-155" value="" style="endArrow=classic;html=1;rounded=0;entryX=0.5;entryY=0;entryDx=0;entryDy=0;exitX=0.5;exitY=1;exitDx=0;exitDy=0;" parent="1" source="YmUADEOCenYqpQ8GPm7N-149" target="YmUADEOCenYqpQ8GPm7N-152" edge="1">
          <mxGeometry width="50" height="50" relative="1" as="geometry">
            <mxPoint x="-70" y="1360" as="sourcePoint" />
            <mxPoint x="230" y="1450" as="targetPoint" />
          </mxGeometry>
        </mxCell>
        <mxCell id="YmUADEOCenYqpQ8GPm7N-156" value="" style="endArrow=classic;html=1;rounded=0;exitX=0.5;exitY=1;exitDx=0;exitDy=0;entryX=0.5;entryY=0;entryDx=0;entryDy=0;" parent="1" source="YmUADEOCenYqpQ8GPm7N-149" target="YmUADEOCenYqpQ8GPm7N-151" edge="1">
          <mxGeometry width="50" height="50" relative="1" as="geometry">
            <mxPoint x="180" y="1500" as="sourcePoint" />
            <mxPoint x="230" y="1450" as="targetPoint" />
          </mxGeometry>
        </mxCell>
        <mxCell id="YmUADEOCenYqpQ8GPm7N-158" value="" style="endArrow=classic;html=1;rounded=0;exitX=1;exitY=0.5;exitDx=0;exitDy=0;entryX=0;entryY=0.5;entryDx=0;entryDy=0;" parent="1" source="YmUADEOCenYqpQ8GPm7N-149" target="YmUADEOCenYqpQ8GPm7N-150" edge="1">
          <mxGeometry width="50" height="50" relative="1" as="geometry">
            <mxPoint x="180" y="1390" as="sourcePoint" />
            <mxPoint x="230" y="1340" as="targetPoint" />
          </mxGeometry>
        </mxCell>
        <mxCell id="YmUADEOCenYqpQ8GPm7N-159" value="" style="endArrow=classic;html=1;rounded=0;exitX=0.5;exitY=1;exitDx=0;exitDy=0;entryX=0.5;entryY=0;entryDx=0;entryDy=0;" parent="1" source="YmUADEOCenYqpQ8GPm7N-150" target="YmUADEOCenYqpQ8GPm7N-160" edge="1">
          <mxGeometry width="50" height="50" relative="1" as="geometry">
            <mxPoint x="180" y="1390" as="sourcePoint" />
            <mxPoint x="230" y="1340" as="targetPoint" />
          </mxGeometry>
        </mxCell>
        <mxCell id="YmUADEOCenYqpQ8GPm7N-160" value="" style="ellipse;html=1;shape=endState;fillColor=#000000;strokeColor=#ff0000;" parent="1" vertex="1">
          <mxGeometry x="650" y="1206" width="100" height="100" as="geometry" />
        </mxCell>
        <mxCell id="YmUADEOCenYqpQ8GPm7N-103" value="" style="shape=table;startSize=0;container=1;collapsible=0;childLayout=tableLayout;" parent="1" vertex="1">
          <mxGeometry x="-1870" y="720" width="1110" height="800.9999999999995" as="geometry" />
        </mxCell>
        <mxCell id="YmUADEOCenYqpQ8GPm7N-104" value="" style="shape=tableRow;horizontal=0;startSize=0;swimlaneHead=0;swimlaneBody=0;strokeColor=inherit;top=0;left=0;bottom=0;right=0;collapsible=0;dropTarget=0;fillColor=none;points=[[0,0.5],[1,0.5]];portConstraint=eastwest;" parent="YmUADEOCenYqpQ8GPm7N-103" vertex="1">
          <mxGeometry width="1110" height="105" as="geometry" />
        </mxCell>
        <mxCell id="YmUADEOCenYqpQ8GPm7N-105" value="&lt;font style=&quot;font-size: 24px;&quot;&gt;Tên usecase&lt;/font&gt;" style="shape=partialRectangle;html=1;whiteSpace=wrap;connectable=0;strokeColor=inherit;overflow=hidden;fillColor=none;top=0;left=0;bottom=0;right=0;pointerEvents=1;fontSize=24;" parent="YmUADEOCenYqpQ8GPm7N-104" vertex="1">
          <mxGeometry width="322" height="105" as="geometry">
            <mxRectangle width="322" height="105" as="alternateBounds" />
          </mxGeometry>
        </mxCell>
        <mxCell id="YmUADEOCenYqpQ8GPm7N-106" value="Danh sách đơn ứng tuyển&amp;nbsp;" style="shape=partialRectangle;html=1;whiteSpace=wrap;connectable=0;strokeColor=inherit;overflow=hidden;fillColor=none;top=0;left=0;bottom=0;right=0;pointerEvents=1;fontSize=24;" parent="YmUADEOCenYqpQ8GPm7N-104" vertex="1">
          <mxGeometry x="322" width="788" height="105" as="geometry">
            <mxRectangle width="788" height="105" as="alternateBounds" />
          </mxGeometry>
        </mxCell>
        <mxCell id="YmUADEOCenYqpQ8GPm7N-107" value="" style="shape=tableRow;horizontal=0;startSize=0;swimlaneHead=0;swimlaneBody=0;strokeColor=inherit;top=0;left=0;bottom=0;right=0;collapsible=0;dropTarget=0;fillColor=none;points=[[0,0.5],[1,0.5]];portConstraint=eastwest;" parent="YmUADEOCenYqpQ8GPm7N-103" vertex="1">
          <mxGeometry y="105" width="1110" height="108" as="geometry" />
        </mxCell>
        <mxCell id="YmUADEOCenYqpQ8GPm7N-108" value="&lt;font style=&quot;font-size: 24px;&quot;&gt;Mô tả&amp;nbsp;&lt;/font&gt;" style="shape=partialRectangle;html=1;whiteSpace=wrap;connectable=0;strokeColor=inherit;overflow=hidden;fillColor=none;top=0;left=0;bottom=0;right=0;pointerEvents=1;fontSize=24;" parent="YmUADEOCenYqpQ8GPm7N-107" vertex="1">
          <mxGeometry width="322" height="108" as="geometry">
            <mxRectangle width="322" height="108" as="alternateBounds" />
          </mxGeometry>
        </mxCell>
        <mxCell id="YmUADEOCenYqpQ8GPm7N-109" value="&lt;font style=&quot;font-size: 24px;&quot;&gt;Cho phép người dùng xem đơn ứng tuyển đã nộp&lt;/font&gt;" style="shape=partialRectangle;html=1;whiteSpace=wrap;connectable=0;strokeColor=inherit;overflow=hidden;fillColor=none;top=0;left=0;bottom=0;right=0;pointerEvents=1;fontSize=24;" parent="YmUADEOCenYqpQ8GPm7N-107" vertex="1">
          <mxGeometry x="322" width="788" height="108" as="geometry">
            <mxRectangle width="788" height="108" as="alternateBounds" />
          </mxGeometry>
        </mxCell>
        <mxCell id="YmUADEOCenYqpQ8GPm7N-110" value="" style="shape=tableRow;horizontal=0;startSize=0;swimlaneHead=0;swimlaneBody=0;strokeColor=inherit;top=0;left=0;bottom=0;right=0;collapsible=0;dropTarget=0;fillColor=none;points=[[0,0.5],[1,0.5]];portConstraint=eastwest;" parent="YmUADEOCenYqpQ8GPm7N-103" vertex="1">
          <mxGeometry y="213" width="1110" height="107" as="geometry" />
        </mxCell>
        <mxCell id="YmUADEOCenYqpQ8GPm7N-111" value="&lt;font style=&quot;font-size: 24px;&quot;&gt;Tác nhân&lt;/font&gt;" style="shape=partialRectangle;html=1;whiteSpace=wrap;connectable=0;strokeColor=inherit;overflow=hidden;fillColor=none;top=0;left=0;bottom=0;right=0;pointerEvents=1;fontSize=24;" parent="YmUADEOCenYqpQ8GPm7N-110" vertex="1">
          <mxGeometry width="322" height="107" as="geometry">
            <mxRectangle width="322" height="107" as="alternateBounds" />
          </mxGeometry>
        </mxCell>
        <mxCell id="YmUADEOCenYqpQ8GPm7N-112" value="&lt;font style=&quot;font-size: 24px;&quot;&gt;Người dùng&lt;/font&gt;" style="shape=partialRectangle;html=1;whiteSpace=wrap;connectable=0;strokeColor=inherit;overflow=hidden;fillColor=none;top=0;left=0;bottom=0;right=0;pointerEvents=1;fontSize=24;" parent="YmUADEOCenYqpQ8GPm7N-110" vertex="1">
          <mxGeometry x="322" width="788" height="107" as="geometry">
            <mxRectangle width="788" height="107" as="alternateBounds" />
          </mxGeometry>
        </mxCell>
        <mxCell id="YmUADEOCenYqpQ8GPm7N-113" value="" style="shape=tableRow;horizontal=0;startSize=0;swimlaneHead=0;swimlaneBody=0;strokeColor=inherit;top=0;left=0;bottom=0;right=0;collapsible=0;dropTarget=0;fillColor=none;points=[[0,0.5],[1,0.5]];portConstraint=eastwest;" parent="YmUADEOCenYqpQ8GPm7N-103" vertex="1">
          <mxGeometry y="320" width="1110" height="105" as="geometry" />
        </mxCell>
        <mxCell id="YmUADEOCenYqpQ8GPm7N-114" value="&lt;font style=&quot;font-size: 24px;&quot;&gt;Điều kiện đầu vào&lt;/font&gt;" style="shape=partialRectangle;html=1;whiteSpace=wrap;connectable=0;strokeColor=inherit;overflow=hidden;fillColor=none;top=0;left=0;bottom=0;right=0;pointerEvents=1;fontSize=24;" parent="YmUADEOCenYqpQ8GPm7N-113" vertex="1">
          <mxGeometry width="322" height="105" as="geometry">
            <mxRectangle width="322" height="105" as="alternateBounds" />
          </mxGeometry>
        </mxCell>
        <mxCell id="YmUADEOCenYqpQ8GPm7N-115" value="&lt;font style=&quot;font-size: 24px;&quot;&gt;Người dùng vào trang đơn ứng tuyển&lt;/font&gt;" style="shape=partialRectangle;html=1;whiteSpace=wrap;connectable=0;strokeColor=inherit;overflow=hidden;fillColor=none;top=0;left=0;bottom=0;right=0;pointerEvents=1;fontSize=24;" parent="YmUADEOCenYqpQ8GPm7N-113" vertex="1">
          <mxGeometry x="322" width="788" height="105" as="geometry">
            <mxRectangle width="788" height="105" as="alternateBounds" />
          </mxGeometry>
        </mxCell>
        <mxCell id="YmUADEOCenYqpQ8GPm7N-119" value="" style="shape=tableRow;horizontal=0;startSize=0;swimlaneHead=0;swimlaneBody=0;strokeColor=inherit;top=0;left=0;bottom=0;right=0;collapsible=0;dropTarget=0;fillColor=none;points=[[0,0.5],[1,0.5]];portConstraint=eastwest;" parent="YmUADEOCenYqpQ8GPm7N-103" vertex="1">
          <mxGeometry y="425" width="1110" height="106" as="geometry" />
        </mxCell>
        <mxCell id="YmUADEOCenYqpQ8GPm7N-120" value="&lt;font style=&quot;font-size: 24px;&quot;&gt;Điều kiện đầu ra&lt;/font&gt;" style="shape=partialRectangle;html=1;whiteSpace=wrap;connectable=0;strokeColor=inherit;overflow=hidden;fillColor=none;top=0;left=0;bottom=0;right=0;pointerEvents=1;fontSize=24;" parent="YmUADEOCenYqpQ8GPm7N-119" vertex="1">
          <mxGeometry width="322" height="106" as="geometry">
            <mxRectangle width="322" height="106" as="alternateBounds" />
          </mxGeometry>
        </mxCell>
        <mxCell id="YmUADEOCenYqpQ8GPm7N-121" value="&lt;font style=&quot;font-size: 24px;&quot;&gt;Hiển thị danh sách đơn ứng tuyển đã nộp&lt;/font&gt;" style="shape=partialRectangle;html=1;whiteSpace=wrap;connectable=0;strokeColor=inherit;overflow=hidden;fillColor=none;top=0;left=0;bottom=0;right=0;pointerEvents=1;fontSize=24;" parent="YmUADEOCenYqpQ8GPm7N-119" vertex="1">
          <mxGeometry x="322" width="788" height="106" as="geometry">
            <mxRectangle width="788" height="106" as="alternateBounds" />
          </mxGeometry>
        </mxCell>
        <mxCell id="YmUADEOCenYqpQ8GPm7N-122" style="shape=tableRow;horizontal=0;startSize=0;swimlaneHead=0;swimlaneBody=0;strokeColor=inherit;top=0;left=0;bottom=0;right=0;collapsible=0;dropTarget=0;fillColor=none;points=[[0,0.5],[1,0.5]];portConstraint=eastwest;" parent="YmUADEOCenYqpQ8GPm7N-103" vertex="1">
          <mxGeometry y="531" width="1110" height="270" as="geometry" />
        </mxCell>
        <mxCell id="YmUADEOCenYqpQ8GPm7N-123" value="&lt;font style=&quot;font-size: 24px;&quot;&gt;Dòng sự kiện chính&lt;/font&gt;" style="shape=partialRectangle;html=1;whiteSpace=wrap;connectable=0;strokeColor=inherit;overflow=hidden;fillColor=none;top=0;left=0;bottom=0;right=0;pointerEvents=1;fontSize=24;" parent="YmUADEOCenYqpQ8GPm7N-122" vertex="1">
          <mxGeometry width="322" height="270" as="geometry">
            <mxRectangle width="322" height="270" as="alternateBounds" />
          </mxGeometry>
        </mxCell>
        <mxCell id="YmUADEOCenYqpQ8GPm7N-124" value="+ Người dùng thấy được đơn ứng tuyển được chấp thuận hay không&lt;br&gt;&lt;br&gt;+ Người dùng đánh giá chất lượng của công việc&amp;nbsp;" style="shape=partialRectangle;html=1;whiteSpace=wrap;connectable=0;strokeColor=inherit;overflow=hidden;fillColor=none;top=0;left=0;bottom=0;right=0;pointerEvents=1;align=left;fontSize=24;" parent="YmUADEOCenYqpQ8GPm7N-122" vertex="1">
          <mxGeometry x="322" width="788" height="270" as="geometry">
            <mxRectangle width="788" height="270" as="alternateBounds" />
          </mxGeometry>
        </mxCell>
      </root>
    </mxGraphModel>
  </diagram>
</mxfile>
